{
    "title": "file reader",
    "check_size": true,
    "min_size": 0,
    "max_size": 3000,
    "formats": [
        "xml",
        "json",
        "csv"
    ],
    "written_by": "Edvinas baranauskas"
}